<svg width="181" height="49" viewBox="0 0 181 49" fill="none" xmlns="http://www.w3.org/2000/svg">
<path d="M2.4 9.32C3.70667 9.18666 4.90667 9.06666 6 8.96C7.12 8.82667 8.29333 8.76 9.52 8.76C10.9867 8.76 12.4533 8.90667 13.92 9.2C15.3867 9.46667 16.6933 9.94667 17.84 10.64C18.9867 11.3333 19.92 12.28 20.64 13.48C21.36 14.68 21.72 16.2 21.72 18.04C21.72 19.0267 21.6 19.92 21.36 20.72C21.1467 21.4933 20.8533 22.1867 20.48 22.8C20.1333 23.4133 19.7333 23.9467 19.28 24.4C18.8533 24.8533 18.4267 25.24 18 25.56L24.24 37.88C23.6 37.9867 22.8933 38.0667 22.12 38.12C21.3733 38.1733 20.6933 38.2 20.08 38.2C19.5467 38.2 18.92 38.1733 18.2 38.12C17.5067 38.0667 16.8933 37.9867 16.36 37.88L10.68 24.8L11.04 24.6C11.36 24.44 11.7067 24.1733 12.08 23.8C12.48 23.4267 12.84 22.9867 13.16 22.48C13.5067 21.9467 13.7867 21.36 14 20.72C14.24 20.08 14.36 19.4133 14.36 18.72C14.36 17.3867 13.9867 16.4133 13.24 15.8C12.4933 15.1867 11.5733 14.88 10.48 14.88C10.2133 14.88 9.98667 14.8933 9.8 14.92C9.61333 14.9467 9.49333 14.9733 9.44 15V37.88C8.02667 38.12 6.86667 38.24 5.96 38.24C4.97333 38.24 3.78667 38.12 2.4 37.88V9.32ZM25.8484 31.24C25.8484 29.9333 26.1284 28.8533 26.6884 28C27.2484 27.1467 27.9684 26.4667 28.8484 25.96C29.7284 25.4533 30.7018 25.1067 31.7684 24.92C32.8351 24.7067 33.8751 24.6 34.8884 24.6H37.3284C37.3018 24.12 37.1684 23.72 36.9284 23.4C36.6884 23.08 36.3818 22.84 36.0084 22.68C35.6351 22.4933 35.2218 22.3733 34.7684 22.32C34.3151 22.24 33.8484 22.2 33.3684 22.2C32.7284 22.2 31.9818 22.28 31.1284 22.44C30.2751 22.5733 29.3951 22.8 28.4884 23.12C28.2484 22.6667 28.0351 22.2533 27.8484 21.88C27.6884 21.5067 27.5551 21.1333 27.4484 20.76C27.3684 20.36 27.3018 19.96 27.2484 19.56C27.2218 19.1333 27.2084 18.6533 27.2084 18.12C28.4884 17.6933 29.7551 17.3733 31.0084 17.16C32.2884 16.9467 33.4351 16.84 34.4484 16.84C35.8351 16.84 37.0884 17.0133 38.2084 17.36C39.3284 17.68 40.2751 18.1867 41.0484 18.88C41.8484 19.5733 42.4618 20.4667 42.8884 21.56C43.3151 22.6267 43.5284 23.9067 43.5284 25.4V37.12C42.5151 37.4133 41.2884 37.7067 39.8484 38C38.4084 38.2933 36.8884 38.44 35.2884 38.44C33.9018 38.44 32.6218 38.3067 31.4484 38.04C30.3018 37.8 29.3151 37.4 28.4884 36.84C27.6618 36.28 27.0084 35.5467 26.5284 34.64C26.0751 33.7067 25.8484 32.5733 25.8484 31.24ZM35.2884 33.48C35.5284 33.48 35.8751 33.4533 36.3284 33.4C36.7818 33.3467 37.1151 33.2933 37.3284 33.24V28.84H35.0484C34.1151 28.84 33.3284 29.04 32.6884 29.44C32.0484 29.84 31.7284 30.4 31.7284 31.12C31.7284 31.6533 31.8484 32.08 32.0884 32.4C32.3284 32.6933 32.6218 32.92 32.9684 33.08C33.3418 33.24 33.7284 33.3467 34.1284 33.4C34.5551 33.4533 34.9418 33.48 35.2884 33.48ZM46.8259 27.68C46.8259 26.08 47.0526 24.6133 47.5059 23.28C47.9593 21.9467 48.6259 20.8133 49.5059 19.88C50.3859 18.92 51.4659 18.1733 52.7459 17.64C54.0259 17.1067 55.4926 16.84 57.1459 16.84C57.7059 16.84 58.2393 16.8533 58.7459 16.88C59.2526 16.9067 59.7459 16.96 60.2259 17.04C60.7326 17.12 61.2393 17.24 61.7459 17.4C62.2793 17.56 62.8659 17.76 63.5059 18C63.5593 18.9067 63.4793 19.8133 63.2659 20.72C63.0526 21.6 62.7193 22.4667 62.2659 23.32C61.8126 23.16 61.3993 23.04 61.0259 22.96C60.6793 22.8533 60.3459 22.7733 60.0259 22.72C59.7059 22.6667 59.3859 22.64 59.0659 22.64C58.7726 22.6133 58.4526 22.6 58.1059 22.6C56.8259 22.6 55.7593 22.9867 54.9059 23.76C54.0793 24.5067 53.6659 25.8133 53.6659 27.68C53.6659 28.6667 53.7859 29.4933 54.0259 30.16C54.2926 30.8 54.6259 31.3067 55.0259 31.68C55.4526 32.0533 55.9326 32.32 56.4659 32.48C57.0259 32.64 57.6126 32.72 58.2259 32.72C58.9993 32.72 59.6659 32.6533 60.2259 32.52C60.8126 32.3867 61.4926 32.1733 62.2659 31.88C62.7193 32.6 63.0793 33.4133 63.3459 34.32C63.6126 35.2 63.7459 36.2133 63.7459 37.36C62.5193 37.84 61.3993 38.1467 60.3859 38.28C59.3726 38.4133 58.3593 38.48 57.3459 38.48C55.6393 38.48 54.1326 38.2267 52.8259 37.72C51.5193 37.2133 50.4126 36.4933 49.5059 35.56C48.6259 34.6 47.9593 33.4667 47.5059 32.16C47.0526 30.8267 46.8259 29.3333 46.8259 27.68ZM65.0681 27.76C65.0681 26.1333 65.2815 24.6533 65.7081 23.32C66.1615 21.96 66.8148 20.8 67.6681 19.84C68.5481 18.88 69.6281 18.1467 70.9081 17.64C72.1881 17.1067 73.6681 16.84 75.3481 16.84C77.0548 16.84 78.5481 17.1067 79.8281 17.64C81.1081 18.1467 82.1748 18.88 83.0281 19.84C83.9081 20.8 84.5615 21.96 84.9881 23.32C85.4415 24.6533 85.6681 26.1333 85.6681 27.76C85.6681 29.36 85.4415 30.8267 84.9881 32.16C84.5615 33.4667 83.9081 34.6 83.0281 35.56C82.1748 36.4933 81.1081 37.2133 79.8281 37.72C78.5481 38.2267 77.0548 38.48 75.3481 38.48C73.6681 38.48 72.1881 38.2267 70.9081 37.72C69.6281 37.2133 68.5481 36.4933 67.6681 35.56C66.8148 34.6 66.1615 33.4667 65.7081 32.16C65.2815 30.8267 65.0681 29.36 65.0681 27.76ZM78.8281 27.76C78.8281 26.0533 78.5348 24.7467 77.9481 23.84C77.3881 22.9333 76.5215 22.48 75.3481 22.48C74.1748 22.48 73.3081 22.9333 72.7481 23.84C72.1881 24.7467 71.9081 26.0533 71.9081 27.76C71.9081 29.44 72.1881 30.7333 72.7481 31.64C73.3081 32.5467 74.1748 33 75.3481 33C76.5215 33 77.3881 32.5467 77.9481 31.64C78.5348 30.7333 78.8281 29.44 78.8281 27.76ZM88.1541 27.76C88.1541 26.1333 88.3674 24.6533 88.7941 23.32C89.2474 21.96 89.9007 20.8 90.7541 19.84C91.6341 18.88 92.7141 18.1467 93.9941 17.64C95.2741 17.1067 96.7541 16.84 98.4341 16.84C100.141 16.84 101.634 17.1067 102.914 17.64C104.194 18.1467 105.261 18.88 106.114 19.84C106.994 20.8 107.647 21.96 108.074 23.32C108.527 24.6533 108.754 26.1333 108.754 27.76C108.754 29.36 108.527 30.8267 108.074 32.16C107.647 33.4667 106.994 34.6 106.114 35.56C105.261 36.4933 104.194 37.2133 102.914 37.72C101.634 38.2267 100.141 38.48 98.4341 38.48C96.7541 38.48 95.2741 38.2267 93.9941 37.72C92.7141 37.2133 91.6341 36.4933 90.7541 35.56C89.9007 34.6 89.2474 33.4667 88.7941 32.16C88.3674 30.8267 88.1541 29.36 88.1541 27.76ZM101.914 27.76C101.914 26.0533 101.621 24.7467 101.034 23.84C100.474 22.9333 99.6074 22.48 98.4341 22.48C97.2607 22.48 96.3941 22.9333 95.8341 23.84C95.2741 24.7467 94.9941 26.0533 94.9941 27.76C94.9941 29.44 95.2741 30.7333 95.8341 31.64C96.3941 32.5467 97.2607 33 98.4341 33C99.6074 33 100.474 32.5467 101.034 31.64C101.621 30.7333 101.914 29.44 101.914 27.76ZM120.64 16.92C121.813 16.92 122.987 17.0267 124.16 17.24C125.333 17.4267 126.387 17.84 127.32 18.48C128.28 19.12 129.053 20.04 129.64 21.24C130.253 22.44 130.56 24.0267 130.56 26V37.96C129.867 38.0933 129.24 38.1733 128.68 38.2C128.12 38.2533 127.627 38.28 127.2 38.28C126.747 38.28 126.24 38.2533 125.68 38.2C125.12 38.1733 124.493 38.0933 123.8 37.96V26.72C123.8 25.3067 123.533 24.2933 123 23.68C122.467 23.0667 121.653 22.76 120.56 22.76C120.267 22.76 119.947 22.7867 119.6 22.84C119.28 22.8933 119.08 22.9467 119 23V37.96C118.307 38.0933 117.68 38.1733 117.12 38.2C116.56 38.2533 116.067 38.28 115.64 38.28C115.187 38.28 114.68 38.2533 114.12 38.2C113.56 38.1733 112.933 38.0933 112.24 37.96V18.32C113.173 18 114.307 17.6933 115.64 17.4C116.973 17.08 118.64 16.92 120.64 16.92Z" fill="#3C3CAF"/>
<path d="M157.814 32.446C157.027 32.446 156.633 33.4573 157.188 34.0083L158.896 35.738C159.24 36.0798 159.802 36.0937 160.146 35.752L161.854 34.0014C162.409 33.4504 162.015 32.446 161.229 32.446H157.814Z" fill="#3C3CAF"/>
<path d="M180.986 31.1766C180.93 30.0258 180.67 28.7913 180.214 27.501C179.532 25.5621 178.387 23.4697 177.031 21.6912C177.53 19.9963 177.705 18.2876 177.558 16.5997C177.424 15.1141 177.045 13.6494 176.419 12.2406C175.358 9.84827 173.953 8.44638 173.897 8.3836L173.503 8L172.962 8.13252C170.876 8.63469 169.105 9.76458 167.707 11.4943C166.857 12.5405 166.28 13.6355 165.901 14.5492C164.215 14.1446 162.578 13.9075 160.498 13.8447V13.8587H159.521H159.5H159.479H158.418V13.8447C156.753 13.9075 154.743 14.1446 153.057 14.5492C152.677 13.6355 152.122 12.5335 151.272 11.4873C149.874 9.76458 148.117 8.63469 146.031 8.13252L145.49 8L145.096 8.39058C145.04 8.44638 143.635 9.85525 142.574 12.2475C141.955 13.6494 141.576 15.1141 141.442 16.5997C141.295 18.2876 141.47 19.9963 141.969 21.6912C140.62 23.4697 139.475 25.5621 138.786 27.501C138.33 28.7913 138.07 30.0258 138.014 31.1766C137.943 32.5158 138.147 33.7363 138.618 34.8174L139.566 37.0004L140.445 34.7895C140.775 33.9525 141.379 33.5131 141.92 33.283C141.913 33.6735 141.906 34.1269 141.899 34.5524L141.85 36.9098L143.571 35.2847C144.71 34.2036 146.319 34.0223 148.342 34.7337C149.326 35.0754 150.183 35.5846 150.724 35.9263C154.56 38.5906 158.256 41.1224 158.256 41.1224H159.521H160.786C160.786 41.1224 164.678 38.4581 168.62 35.7171C169.14 35.4102 169.836 35.0406 170.616 34.7616C172.66 34.0362 174.283 34.2106 175.429 35.2917L177.15 36.9167L177.101 34.5593C177.094 34.1339 177.087 33.6875 177.08 33.2899C177.621 33.5201 178.225 33.9525 178.555 34.7895L179.434 37.0004L180.382 34.8174C180.853 33.7433 181.057 32.5158 180.986 31.1766ZM152.699 27.7661C152.699 27.0407 153.289 26.4548 154.019 26.4548C154.75 26.4548 155.34 27.0407 155.34 27.7661C155.34 28.4914 154.75 29.0773 154.019 29.0773C153.289 29.0773 152.699 28.4914 152.699 27.7661ZM165.023 29.0773C164.292 29.0773 163.702 28.4914 163.702 27.7661C163.702 27.0407 164.292 26.4548 165.023 26.4548C165.753 26.4548 166.344 27.0407 166.344 27.7661C166.344 28.4914 165.753 29.0773 165.023 29.0773ZM179.005 32.1601C177.846 31.2324 176.504 31.0999 176.152 31.079L175.724 31.0581L175.415 31.358C175.098 31.6579 175.098 31.9648 175.098 32.4739C175.098 32.5576 175.098 32.6553 175.098 32.7668C174.55 32.5437 173.96 32.4111 173.342 32.3693C173.665 32.1391 173.974 31.909 174.262 31.6997C175.527 30.7721 175.632 28.9378 174.487 27.8707C171.213 24.8228 164.847 20.0591 161.411 25.6248L161.418 30.5071C161.418 30.5071 162.142 31.6091 163.821 32.188C165.472 32.7529 166.372 32.7947 159.865 37.3631C159.662 37.5026 159.395 37.5026 159.191 37.3631C152.684 32.7947 153.584 32.7599 155.235 32.188C156.914 31.6091 157.638 30.5071 157.638 30.5071L157.645 25.6248C154.202 20.0452 147.836 24.8088 144.555 27.8567C143.41 28.9238 143.522 30.7651 144.787 31.6928C145.075 31.902 145.384 32.1252 145.707 32.3623C145.068 32.4042 144.471 32.5367 143.909 32.7668C143.909 32.6553 143.909 32.5576 143.909 32.4739C143.909 31.9648 143.909 31.6649 143.592 31.358L143.283 31.0581L142.855 31.079C142.496 31.0999 141.161 31.2324 140.002 32.1601C139.911 30.7233 140.269 29.2656 140.662 28.1497C141.33 26.2526 142.489 24.195 143.845 22.5002L143.986 22.3189C145.63 20.5613 149.213 18.8385 149.213 18.8385C148.223 14.4515 145.258 13.4681 145.258 13.4681C144.021 14.8072 143.536 16.6904 143.396 18.4131C143.368 17.8761 143.368 17.339 143.417 16.8089C143.522 15.5465 143.845 14.2981 144.372 13.0915C144.97 11.7175 145.707 10.7061 146.143 10.1831C147.555 10.6364 148.771 11.4873 149.762 12.7079C150.717 13.8866 151.265 15.1629 151.553 16.0208L151.841 16.9275L152.755 16.6694C153.774 16.3765 154.842 16.1603 155.966 16.0138C156.949 16.7043 158.109 17.7993 158.109 19.1385C158.109 21.454 158.172 23.2047 159.521 23.2047C160.87 23.2047 160.933 21.454 160.933 19.1385C160.933 17.7993 162.093 16.7043 163.069 16.0208C164.18 16.1673 165.24 16.3835 166.245 16.6694L167.159 16.9275L167.461 16.0348C167.749 15.1769 168.297 13.9005 169.253 12.7218C170.243 11.5013 171.459 10.6504 172.871 10.197C173.293 10.7131 174.009 11.6896 174.614 13.0357C175.148 14.2423 175.478 15.5047 175.59 16.7741C175.632 17.2204 175.639 17.6738 175.625 18.1271C175.45 16.4881 174.958 14.7445 173.792 13.482C173.792 13.482 170.826 14.4655 169.836 18.8525C169.836 18.8525 173.117 20.4288 174.838 22.1027L175.162 22.5072C176.518 24.202 177.677 26.2665 178.345 28.1566C178.738 29.2656 179.096 30.7233 179.005 32.1601Z" fill="#3C3CAF"/>
</svg>
